<svg xmlns:dc="http://purl.org/dc/elements/1.1/" xmlns:cc="http://creativecommons.org/ns#" xmlns:rdf="http://www.w3.org/1999/02/22-rdf-syntax-ns#" xmlns:svg="http://www.w3.org/2000/svg" xmlns="http://www.w3.org/2000/svg" xmlns:sodipodi="http://sodipodi.sourceforge.net/DTD/sodipodi-0.dtd" xmlns:inkscape="http://www.inkscape.org/namespaces/inkscape" width="100" height="100" viewBox="0 0 80 80" version="1.1" id="svg2" inkscape:version="0.48.2 r9819" sodipodi:docname="blank.svg">
  <metadata id="metadata10">
    <rdf:RDF>
      <cc:Work rdf:about="">
        <dc:format>image/svg+xml</dc:format>
        <dc:type rdf:resource="http://purl.org/dc/dcmitype/StillImage"/>
        <dc:title/>
      </cc:Work>
    </rdf:RDF>
  </metadata>
  <defs id="defs8">
    <inkscape:path-effect is_visible="true" id="path-effect5043" effect="spiro"/>
    <inkscape:path-effect is_visible="true" id="path-effect5065" effect="spiro"/>
    <marker inkscape:stockid="TriangleOutM" orient="auto" refY="0" refX="0" id="TriangleOutM" style="overflow:visible">
      <path inkscape:connector-curvature="0" id="path4281" d="m 5.77,0 -8.65,5 0,-10 8.65,5 z" style="fill-rule:evenodd;stroke:#000000;stroke-width:1pt;marker-start:none" transform="scale(0.4,0.4)"/>
    </marker>
    <marker inkscape:stockid="TriangleOutM" orient="auto" refY="0" refX="0" id="marker4230" style="overflow:visible">
      <path inkscape:connector-curvature="0" id="path4232" d="m 5.77,0 -8.65,5 0,-10 8.65,5 z" style="fill-rule:evenodd;stroke:#000000;stroke-width:1pt;marker-start:none" transform="scale(0.4,0.4)"/>
    </marker>
    <marker inkscape:stockid="TriangleOutM" orient="auto" refY="0" refX="0" id="marker4234" style="overflow:visible">
      <path inkscape:connector-curvature="0" id="path4236" d="m 5.77,0 -8.65,5 0,-10 8.65,5 z" style="fill-rule:evenodd;stroke:#000000;stroke-width:1pt;marker-start:none" transform="scale(0.4,0.4)"/>
    </marker>
    <marker inkscape:stockid="TriangleOutM" orient="auto" refY="0" refX="0" id="marker4238" style="overflow:visible">
      <path inkscape:connector-curvature="0" id="path4240" d="m 5.77,0 -8.65,5 0,-10 8.65,5 z" style="fill-rule:evenodd;stroke:#000000;stroke-width:1pt;marker-start:none" transform="scale(0.4,0.4)"/>
    </marker>
  </defs>
  <sodipodi:namedview pagecolor="#ffffff" bordercolor="#666666" borderopacity="1" objecttolerance="10" gridtolerance="10" guidetolerance="10" inkscape:pageopacity="0" inkscape:pageshadow="2" inkscape:window-width="1366" inkscape:window-height="706" id="namedview6" showgrid="true" inkscape:zoom="5.0173795" inkscape:cx="72.544676" inkscape:cy="50.888801" inkscape:window-x="-8" inkscape:window-y="-8" inkscape:window-maximized="1" inkscape:current-layer="svg2" inkscape:snap-grids="false">
    <inkscape:grid type="xygrid" id="grid3807"/>
  </sodipodi:namedview>
  <path style="font-size:medium;font-style:normal;font-variant:normal;font-weight:normal;font-stretch:normal;text-indent:0;text-align:start;text-decoration:none;line-height:normal;letter-spacing:normal;word-spacing:normal;text-transform:none;direction:ltr;block-progression:tb;writing-mode:lr-tb;text-anchor:start;baseline-shift:baseline;color:#000000;fill:#000000;fill-opacity:1;stroke:none;stroke-width:1.60000002;marker:none;visibility:visible;display:inline;overflow:visible;enable-background:accumulate;font-family:Sans;-inkscape-font-specification:Sans" d="m 19.780605,3.1674778 c -0.886202,0 -1.638608,0.6859192 -1.638608,1.5414117 l 0,45.7046485 c 0,0.855493 0.729171,1.541412 1.638608,1.541412 l 1.829143,0 c 3.375312,8.634379 6.305087,15.060937 9.0695,19.28557 1.419318,2.169029 2.800632,3.785115 4.229894,4.875162 1.429261,1.090047 2.978201,1.665255 4.53475,1.541412 3.1131,-0.247685 5.776847,-2.893688 8.612215,-7.312744 2.760488,-4.302351 5.714778,-10.520931 9.107608,-18.3894 l 1.943464,0 c 0.909442,0 1.638608,-0.685903 1.638608,-1.541412 l 0,-45.7046485 c 0,-0.8555084 -0.752404,-1.5414117 -1.638608,-1.5414117 l -3.201,0 -0.647821,0 -0.26675,0.5735486 C 51.644775,11.457904 48.74492,17.436515 46.112643,21.449337 c -2.632277,4.012822 -4.956491,5.914302 -6.859287,6.058107 -0.951398,0.0719 -1.922531,-0.236907 -3.048571,-1.075404 -1.12604,-0.838497 -2.353053,-2.208074 -3.658286,-4.158227 C 29.936031,18.373506 27.03482,12.231481 23.705641,3.7768732 l -0.228643,-0.6093954 -0.685929,0 -3.010464,0 z m 0.304857,1.828186 2.019678,0 c 3.241716,8.1733172 6.119636,14.2371612 8.802751,18.2460122 1.376982,2.057352 2.684657,3.587092 4.077465,4.624235 1.392808,1.037144 2.906151,1.584161 4.420429,1.469718 3.028557,-0.228886 5.636035,-2.765741 8.383572,-6.954276 2.671121,-4.072038 5.518973,-9.94127 8.764644,-17.3856892 l 2.248321,0 0,45.1311002 -2.286428,0 -0.647822,0 -0.26675,0.573549 c -3.49523,8.14392 -6.497261,14.42965 -9.221929,18.676174 -2.724669,4.246523 -5.129982,6.296642 -7.08793,6.452421 -0.978974,0.07789 -1.99957,-0.224026 -3.162893,-1.11125 -1.163322,-0.887225 -2.42274,-2.346261 -3.772607,-4.409155 -2.699735,-4.125788 -5.712589,-10.629331 -9.183822,-19.572344 l -0.228643,-0.609395 -0.685929,0 -2.172107,0 0,-45.1311002 z" id="rect5548" inkscape:connector-curvature="0"/>
  <path style="fill:#000000;stroke:#000000;stroke-width:0.41525212px;stroke-linecap:butt;stroke-linejoin:miter;stroke-opacity:1" d="m 37.246699,59.103239 4.281443,0 0,4.027485 4.281443,0 -6.422165,8.054962 -6.422155,-8.054962 4.281434,0 z" id="path5556" inkscape:connector-curvature="0" sodipodi:nodetypes="cccccccc"/>
</svg>